feature;id
Concerns;1
Consequence;2
Control;3
Population;4
Density;5
65+ age;6
Deprivation -2015;7
HR buildings;8
Heritage;9
local concerns;10
Student;11
crime;12
Over crowding;13
No central heat;14
older alone;15
Disability;16
Smokers;17
1 pump fires;18
2+ pump fires;19
1 pump special services;20
2+ pump special services;21
Fire casualties;22
Special services casualties;23
entry / exit;24
flooding;25
making safe;26
medical;27
rtc;28
Rescue / Release;29
1st pump attendance;30
2nd pump attendance;31
3rd pump attendance;32
HFSV;33
FSR Inspection;34
Visual audit;35
